{
  "project_info": {
    "project_number": "95618175140",
    "project_id": "conectdb-25ab5",
    "storage_bucket": "conectdb-25ab5.appspot.com"
  },
  "client": [
    {
      "client_info": {
        "mobilesdk_app_id": "1:95618175140:android:6c5338479b44d17fb09631",
        "android_client_info": {
          "package_name": "com.example.kotlin"
        }
      },
      "oauth_client": [
        {
          "client_id": "95618175140-oc7e5musgvq91m6k96ieut54b5aoqiin.apps.googleusercontent.com",
          "client_type": 3
        }
      ],
      "api_key": [
        {
          "current_key": "AIzaSyCQY5riTIjAM1oRt8mZ3nWx4t5URApvOdc"
        }
      ],
      "services": {
        "appinvite_service": {
          "other_platform_oauth_client": [
            {
              "client_id": "95618175140-141llgjumv2un7f665am91j4hokplfjm.apps.googleusercontent.com",
              "client_type": 3
            }
          ]
        }
      }
    },
    {
      "client_info": {
        "mobilesdk_app_id": "1:95618175140:android:f2673d417b162fd5b09631",
        "android_client_info": {
          "package_name": "com.example.proyectologin"
        }
      },
      "oauth_client": [
        {
          "client_id": "95618175140-a5ldtm33afen6d91c55amcp56kmcltn0.apps.googleusercontent.com",
          "client_type": 1,
          "android_info": {
            "package_name": "com.example.proyectologin",
            "certificate_hash": "023fd7e141f788034e8cabdb228e6474d57d3ddf"
          }
        },
        {
          "client_id": "95618175140-mrg8s6n05n6eo081gmd9po02p4vus9hc.apps.googleusercontent.com",
          "client_type": 1,
          "android_info": {
            "package_name": "com.example.proyectologin",
            "certificate_hash": "70ead0ca90b6c1796daa9a377f142224b118a5de"
          }
        },
        {
          "client_id": "95618175140-oc7e5musgvq91m6k96ieut54b5aoqiin.apps.googleusercontent.com",
          "client_type": 3
        }
      ],
      "api_key": [
        {
          "current_key": "AIzaSyCQY5riTIjAM1oRt8mZ3nWx4t5URApvOdc"
        }
      ],
      "services": {
        "appinvite_service": {
          "other_platform_oauth_client": [
            {
              "client_id": "95618175140-141llgjumv2un7f665am91j4hokplfjm.apps.googleusercontent.com",
              "client_type": 3
            }
          ]
        }
      }
    }
  ],
  "configuration_version": "1"
}